[api-updater (non-obsolete-error-filter)] 21/02/2022 21:12:40 : Starting /home/francesco/Scrivania/Dottorato/Unity/2020.3.22f1/Editor/Data/Tools/ScriptUpdater/APIUpdater.NonObsoleteApiUpdaterDetector.exe
[api-updater (non-obsolete-error-filter)] 
----------------------------------
jit/startup time      : 46,732ms
moved types parse time: 33ms
candidates parse time : 0ms
C# parse time         : 140ms
candidates check time : 22ms
console write time    : 0ms

[api-updater (non-obsolete-error-filter)] 21/02/2022 21:12:46 : Starting /home/francesco/Scrivania/Dottorato/Unity/2020.3.22f1/Editor/Data/Tools/ScriptUpdater/APIUpdater.NonObsoleteApiUpdaterDetector.exe
[api-updater (non-obsolete-error-filter)] 
----------------------------------
jit/startup time      : 30,098ms
moved types parse time: 33ms
candidates parse time : 0ms
C# parse time         : 137ms
candidates check time : 25ms
console write time    : 0ms

[api-updater (non-obsolete-error-filter)] 21/02/2022 21:13:29 : Starting /home/francesco/Scrivania/Dottorato/Unity/2020.3.22f1/Editor/Data/Tools/ScriptUpdater/APIUpdater.NonObsoleteApiUpdaterDetector.exe
[api-updater (non-obsolete-error-filter)] Exception caught while loading types from /home/francesco/Scrivania/Dottorato/RoboticsVisionControl/RVC_box/Library/ScriptAssemblies/Unity.CollabProxy.Editor.dll (some types may not be loaded)
	Exception of type 'System.Reflection.ReflectionTypeLoadException' was thrown.
	  at (wrapper managed-to-native) System.Reflection.Assembly.GetTypes(System.Reflection.Assembly,bool)
  at System.Reflection.Assembly.GetTypes () [0x00000] in <695d1cc93cca45069c528c15c9fdd749>:0 
  at APIUpdater.NonObsoleteApiUpdaterDetector.ExtraInfoParser+<LoadTypesWithMovedFromAttributeAsync>d__3.MoveNext () [0x000c8] in <f4220ae6b779455d88a01cbcc3c694c1>:0 
	Could not load file or assembly 'UnityEditor.CoreModule, Version=0.0.0.0, Culture=neutral, PublicKeyToken=null' or one of its dependencies.

[api-updater (non-obsolete-error-filter)] Exception caught while loading types from /home/francesco/Scrivania/Dottorato/RoboticsVisionControl/RVC_box/Library/ScriptAssemblies/Unity.TextMeshPro.Editor.dll (some types may not be loaded)
	Exception of type 'System.Reflection.ReflectionTypeLoadException' was thrown.
	  at (wrapper managed-to-native) System.Reflection.Assembly.GetTypes(System.Reflection.Assembly,bool)
  at System.Reflection.Assembly.GetTypes () [0x00000] in <695d1cc93cca45069c528c15c9fdd749>:0 
  at APIUpdater.NonObsoleteApiUpdaterDetector.ExtraInfoParser+<LoadTypesWithMovedFromAttributeAsync>d__3.MoveNext () [0x000c8] in <f4220ae6b779455d88a01cbcc3c694c1>:0 
	Could not load file or assembly 'UnityEditor.CoreModule, Version=0.0.0.0, Culture=neutral, PublicKeyToken=null' or one of its dependencies.

[api-updater (non-obsolete-error-filter)] 
----------------------------------
jit/startup time      : 27,171ms
moved types parse time: 33ms
candidates parse time : 0ms
C# parse time         : 142ms
candidates check time : 25ms
console write time    : 0ms

[api-updater (non-obsolete-error-filter)] 21/02/2022 22:31:49 : Starting /home/francesco/Scrivania/Dottorato/Unity/2020.3.22f1/Editor/Data/Tools/ScriptUpdater/APIUpdater.NonObsoleteApiUpdaterDetector.exe
[api-updater (non-obsolete-error-filter)] 
----------------------------------
jit/startup time      : 36,188ms
moved types parse time: 33ms
candidates parse time : 0ms
C# parse time         : 155ms
candidates check time : 24ms
console write time    : 0ms

[api-updater (non-obsolete-error-filter)] 22/02/2022 21:27:31 : Starting /home/francesco/Scrivania/Dottorato/Unity/2020.3.22f1/Editor/Data/Tools/ScriptUpdater/APIUpdater.NonObsoleteApiUpdaterDetector.exe
[api-updater (non-obsolete-error-filter)] 
----------------------------------
jit/startup time      : 53,816ms
moved types parse time: 34ms
candidates parse time : 0ms
C# parse time         : 143ms
candidates check time : 20ms
console write time    : 0ms

[api-updater (non-obsolete-error-filter)] 23/02/2022 10:50:01 : Starting /home/francesco/Scrivania/Dottorato/Unity/2020.3.22f1/Editor/Data/Tools/ScriptUpdater/APIUpdater.NonObsoleteApiUpdaterDetector.exe
[api-updater (non-obsolete-error-filter)] 
----------------------------------
jit/startup time      : 65,502ms
moved types parse time: 50ms
candidates parse time : 1ms
C# parse time         : 177ms
candidates check time : 29ms
console write time    : 0ms

[api-updater (non-obsolete-error-filter)] 23/02/2022 10:50:12 : Starting /home/francesco/Scrivania/Dottorato/Unity/2020.3.22f1/Editor/Data/Tools/ScriptUpdater/APIUpdater.NonObsoleteApiUpdaterDetector.exe
[api-updater (non-obsolete-error-filter)] 
----------------------------------
jit/startup time      : 43,559ms
moved types parse time: 36ms
candidates parse time : 0ms
C# parse time         : 151ms
candidates check time : 26ms
console write time    : 0ms

[api-updater (non-obsolete-error-filter)] 26/02/2022 14:24:55 : Starting /home/francesco/Scrivania/Dottorato/Unity/2020.3.22f1/Editor/Data/Tools/ScriptUpdater/APIUpdater.NonObsoleteApiUpdaterDetector.exe
[api-updater (non-obsolete-error-filter)] 
----------------------------------
jit/startup time      : 114,287ms
moved types parse time: 33ms
candidates parse time : 0ms
C# parse time         : 154ms
candidates check time : 31ms
console write time    : 0ms

[api-updater (non-obsolete-error-filter)] 26/02/2022 14:24:56 : Starting /home/francesco/Scrivania/Dottorato/Unity/2020.3.22f1/Editor/Data/Tools/ScriptUpdater/APIUpdater.NonObsoleteApiUpdaterDetector.exe
[api-updater (non-obsolete-error-filter)] 
----------------------------------
jit/startup time      : 116,306ms
moved types parse time: 33ms
candidates parse time : 0ms
C# parse time         : 145ms
candidates check time : 41ms
console write time    : 0ms

[api-updater (non-obsolete-error-filter)] 28/02/2022 21:01:05 : Starting /home/francesco/Scrivania/Dottorato/Unity/2020.3.22f1/Editor/Data/Tools/ScriptUpdater/APIUpdater.NonObsoleteApiUpdaterDetector.exe
[api-updater (non-obsolete-error-filter)] 
----------------------------------
jit/startup time      : 47,52ms
moved types parse time: 33ms
candidates parse time : 0ms
C# parse time         : 162ms
candidates check time : 28ms
console write time    : 0ms

[api-updater (non-obsolete-error-filter)] 04/03/2022 10:22:30 : Starting /home/francesco/Scrivania/Dottorato/Unity/2020.3.22f1/Editor/Data/Tools/ScriptUpdater/APIUpdater.NonObsoleteApiUpdaterDetector.exe
[api-updater (non-obsolete-error-filter)] 
----------------------------------
jit/startup time      : 137,056ms
moved types parse time: 36ms
candidates parse time : 0ms
C# parse time         : 158ms
candidates check time : 27ms
console write time    : 0ms

[api-updater (non-obsolete-error-filter)] 06/03/2022 18:14:10 : Starting /home/francesco/Scrivania/Dottorato/Unity/2020.3.22f1/Editor/Data/Tools/ScriptUpdater/APIUpdater.NonObsoleteApiUpdaterDetector.exe
[api-updater (non-obsolete-error-filter)] 
----------------------------------
jit/startup time      : 42,834ms
moved types parse time: 32ms
candidates parse time : 0ms
C# parse time         : 110ms
candidates check time : 22ms
console write time    : 0ms

[api-updater (non-obsolete-error-filter)] 06/03/2022 18:14:58 : Starting /home/francesco/Scrivania/Dottorato/Unity/2020.3.22f1/Editor/Data/Tools/ScriptUpdater/APIUpdater.NonObsoleteApiUpdaterDetector.exe
[api-updater (non-obsolete-error-filter)] 
----------------------------------
jit/startup time      : 42,873ms
moved types parse time: 34ms
candidates parse time : 0ms
C# parse time         : 114ms
candidates check time : 18ms
console write time    : 0ms

[api-updater (non-obsolete-error-filter)] 06/03/2022 18:17:57 : Starting /home/francesco/Scrivania/Dottorato/Unity/2020.3.22f1/Editor/Data/Tools/ScriptUpdater/APIUpdater.NonObsoleteApiUpdaterDetector.exe
[api-updater (non-obsolete-error-filter)] Exception caught while loading types from /home/francesco/Scrivania/Dottorato/RoboticsVisionControl/Library/ScriptAssemblies/Unity.CollabProxy.Editor.dll (some types may not be loaded)
	Exception of type 'System.Reflection.ReflectionTypeLoadException' was thrown.
	  at (wrapper managed-to-native) System.Reflection.Assembly.GetTypes(System.Reflection.Assembly,bool)
  at System.Reflection.Assembly.GetTypes () [0x00000] in <695d1cc93cca45069c528c15c9fdd749>:0 
  at APIUpdater.NonObsoleteApiUpdaterDetector.ExtraInfoParser+<LoadTypesWithMovedFromAttributeAsync>d__3.MoveNext () [0x000c8] in <f4220ae6b779455d88a01cbcc3c694c1>:0 
	Could not load file or assembly 'UnityEditor.CoreModule, Version=0.0.0.0, Culture=neutral, PublicKeyToken=null' or one of its dependencies.

[api-updater (non-obsolete-error-filter)] Exception caught while loading types from /home/francesco/Scrivania/Dottorato/RoboticsVisionControl/Library/ScriptAssemblies/Unity.TextMeshPro.Editor.dll (some types may not be loaded)
	Exception of type 'System.Reflection.ReflectionTypeLoadException' was thrown.
	  at (wrapper managed-to-native) System.Reflection.Assembly.GetTypes(System.Reflection.Assembly,bool)
  at System.Reflection.Assembly.GetTypes () [0x00000] in <695d1cc93cca45069c528c15c9fdd749>:0 
  at APIUpdater.NonObsoleteApiUpdaterDetector.ExtraInfoParser+<LoadTypesWithMovedFromAttributeAsync>d__3.MoveNext () [0x000c8] in <f4220ae6b779455d88a01cbcc3c694c1>:0 
	Could not load file or assembly 'UnityEditor.CoreModule, Version=0.0.0.0, Culture=neutral, PublicKeyToken=null' or one of its dependencies.

[api-updater (non-obsolete-error-filter)] 
----------------------------------
jit/startup time      : 26,775ms
moved types parse time: 34ms
candidates parse time : 0ms
C# parse time         : 122ms
candidates check time : 22ms
console write time    : 0ms

[api-updater (non-obsolete-error-filter)] 07/03/2022 16:43:29 : Starting /home/francesco/Unity/Hub/Editor/2020.3.22f1/Editor/Data/Tools/ScriptUpdater/APIUpdater.NonObsoleteApiUpdaterDetector.exe
[api-updater (non-obsolete-error-filter)] 
----------------------------------
jit/startup time      : 71,822ms
moved types parse time: 40ms
candidates parse time : 0ms
C# parse time         : 162ms
candidates check time : 33ms
console write time    : 0ms

